newmtl anisotropic1SG
illum 4
Kd 0.00 0.00 0.00
Ka 0.00 0.00 0.00
Tf 1.00 1.00 1.00
map_Kd colorCorona.png
Ni 1.00
newmtl anisotropic2SG
illum 4
Kd 0.00 0.00 0.00
Ka 0.00 0.00 0.00
Tf 1.00 1.00 1.00
map_Kd colorNegro.png
Ni 1.00
newmtl initialShadingGroup
illum 4
Kd 0.00 0.00 0.00
Ka 0.00 0.00 0.00
Tf 1.00 1.00 1.00
map_Kd colorPiel.png
Ni 1.00
newmtl pasted__pasted__anisotropic1SG4
illum 4
Kd 0.00 0.00 0.00
Ka 0.00 0.00 0.00
Tf 1.00 1.00 1.00
map_Kd colorBlaco.png
Ni 1.00
newmtl pasted__pasted__anisotropic2SG
illum 4
Kd 0.00 0.00 0.00
Ka 0.00 0.00 0.00
Tf 1.00 1.00 1.00
map_Kd colorOjosWanda.png
Ni 1.00
newmtl pasted__pasted__anisotropic3SG
illum 4
Kd 0.00 0.00 0.00
Ka 0.00 0.00 0.00
Tf 1.00 1.00 1.00
map_Kd colorNegro.png
Ni 1.00
newmtl pasted__pasted__anisotropic4SG3
illum 4
Kd 0.00 0.00 0.00
Ka 0.00 0.00 0.00
Tf 1.00 1.00 1.00
map_Kd colorNegro.png
Ni 1.00
newmtl pasted__pasted__pasted__anisotropic1SG4
illum 4
Kd 0.00 0.00 0.00
Ka 0.00 0.00 0.00
Tf 1.00 1.00 1.00
map_Kd colorBlaco.png
Ni 1.00
newmtl pasted__pasted__pasted__anisotropic2SG
illum 4
Kd 0.00 0.00 0.00
Ka 0.00 0.00 0.00
Tf 1.00 1.00 1.00
map_Kd colorOjosWanda.png
Ni 1.00
newmtl pasted__pasted__pasted__anisotropic3SG
illum 4
Kd 0.00 0.00 0.00
Ka 0.00 0.00 0.00
Tf 1.00 1.00 1.00
map_Kd colorNegro.png
Ni 1.00
newmtl pasted__pasted__pasted__anisotropic4SG
illum 4
Kd 0.00 0.00 0.00
Ka 0.00 0.00 0.00
Tf 1.00 1.00 1.00
map_Kd colorNegro.png
Ni 1.00
newmtl pasted__pasted__pasted__anisotropic4SG3
illum 4
Kd 0.00 0.00 0.00
Ka 0.00 0.00 0.00
Tf 1.00 1.00 1.00
map_Kd colorNegro.png
Ni 1.00
newmtl pasted__pasted__pasted__pasted__anisotropic4SG
illum 4
Kd 0.00 0.00 0.00
Ka 0.00 0.00 0.00
Tf 1.00 1.00 1.00
map_Kd colorNegro.png
Ni 1.00
newmtl pasted__pasted__pasted__pasted__anisotropic4SG1
illum 4
Kd 0.00 0.00 0.00
Ka 0.00 0.00 0.00
Tf 1.00 1.00 1.00
map_Kd colorNegro.png
Ni 1.00
newmtl pasted__pasted__pasted__pasted__pasted__anisotropic4SG
illum 4
Kd 0.00 0.00 0.00
Ka 0.00 0.00 0.00
Tf 1.00 1.00 1.00
map_Kd colorNegro.png
Ni 1.00
newmtl pasted__pasted__pasted__pasted__pasted__anisotropic4SG1
illum 4
Kd 0.00 0.00 0.00
Ka 0.00 0.00 0.00
Tf 1.00 1.00 1.00
map_Kd colorNegro.png
Ni 1.00
newmtl pasted__pasted__pasted__pasted__pasted__pasted__anisotropic4SG
illum 4
Kd 0.00 0.00 0.00
Ka 0.00 0.00 0.00
Tf 1.00 1.00 1.00
map_Kd colorNegro.png
Ni 1.00
